HMDB0000296	Uridine, also known as beta-uridine or 1-beta-D-ribofuranosylpyrimidine-2,4(1H,3H)-dione, is a member of the class of compounds known as pyrimidine nucleosides. Pyrimidine nucleosides are compounds comprising a pyrimidine base attached to a ribosyl or deoxyribosyl moiety. More specifically, uridine is a nucleoside consisting of uracil and D-ribose and a component of RNA. Uridine is soluble (in water) and a very weakly acidic compound (based on its pKa). Uridine can be synthesized from uracil. It is one of the five standard nucleosides which make up nucleic acids, the others being adenosine, thymidine, cytidine and guanosine. The five nucleosides are commonly abbreviated to their one-letter codes U, A, T, C and G respectively. Uridine is also a parent compound for other transformation products, including but not limited to, nikkomycin Z, 3'-(enolpyruvyl)uridine 5'-monophosphate, and 5-aminomethyl-2-thiouridine. Uridine can be found in most biofluids, including urine, breast milk, cerebrospinal fluid (CSF), and blood. Within the cell, uridine is primarily located in the mitochondria, in the nucleus and the lysosome. It can also be found in the extracellular space. As an essential nucleoside, uridine exists in all living species, ranging from bacteria to humans. In humans, uridine is involved in several metabolic disorders, some of which include dhydropyrimidinase deficiency,  MNGIE (mitochondrial neurogastrointestinal encephalopathy), and beta-ureidopropionase deficiency. Uridine is a nucleoside consisting of uracil and D-ribose and a component of RNA. Uridine plays a role in the glycolysis pathway of galactose. In humans there is no catabolic process to metabolize galactose. Therefore, galactose is converted to glucose and metabolized via the normal glucose metabolism pathways. More specifically, consumed galactose is converted into galactose 1-phosphate (Gal-1-P). This molecule is a substrate for the enzyme galactose-1-phosphate uridyl transferase which transfers a UDP molecule to the galactose molecule. The end result is UDP-galactose and glucose-1-phosphate. This process is continued to allow the proper glycolysis of galactose. Uridine is found in many foods (anything containing RNA) but is destroyed in the liver and gastrointestinal tract, and so no food, when consumed, has ever been reliably shown to elevate blood uridine levels. On the other hand, consumption of RNA-rich foods may lead to high levels of purines (adenine and guanosine) in blood. High levels of purines are known to increase uric acid production and may aggravate or lead to conditions such as gout.

HMDB0000315	16-alpha-hydroxypregnenolone, also known as (3beta,16alpha)-3,16-dihydroxypregn-5-en-20-one, is classified as a gluco/mineralocorticoid, a progestogin or aprogestogin derivative. Gluco/mineralocorticoids are steroids with a structure based on a hydroxylated prostane moiety. Thus, 16-alpha-hydroxypregnenolone is a steroid lipid molecule. 16-alpha-hydroxypregnenolone is practically insoluble (in water) and a very weakly acidic compound (based on its pKa). 16-alpha-hydroxypregnenolone can be found primarily in blood, urine and in human umbilical cord tissue. Within the cell, 16-alpha-hydroxypregnenolone is primarily located in the membrane, and in the nucleus bound to cytoplasmic glucocorticoid receptors. 16-alpha-hydroxypregnenolone exists in all vertebrates. 16-a-Hydroxypregnenolone is a normal urinary metabolite with increased total excretion in newborn infants with congenital adrenal hyperplasia due to 21-hydroxylase deficiency (PMID 6980322).

HMDB0000214	L-ornithine, also known as (S)-2,5-diaminopentanoic acid or ornithine is a member of the class of compounds known as L-alpha-amino acids. L-alpha-amino acids are alpha amino acids which have the L-configuration of the alpha-carbon atom. L-ornithine is soluble (in water) and a moderately acidic compound. It has been claimed that ornithine improves athletic performance, has anabolic effects, has wound-healing effects, and is immuno-enhancing. L-ornithine is abundant in a number of food items such as wild rices, brazil nuts, common oregano, and common grapes. L-ornithine can be found throughout most human tissues; and in most biofluids, some of which include blood, urine, cerebrospinal fluid (CSF), sweat, saliva, and feces. Within the cell, L-ornithine is located in the mitochondria and the cytoplasm. L-ornithine exists in all living species, from bacteria to humans. In humans, L-ornithine is involved in numerous metabolic disorders, some of which include, ornithine transcarbamylase deficiency (OTC deficiency), argininemia, and guanidinoacetate methyltransferase deficiency (GAMT deficiency). Ornithine is produced in the urea cycle through the cleavage of urea from arginine. It is a central part of the urea cycle, which allows for the disposal of excess nitrogen. L-Ornithine is also a precursor of citrulline and arginine. In order for ornithine produced in the cytosol to be converted to citrulline, it must first cross the inner mitochondrial membrane into the mitochondrial matrix where it is carbamylated by ornithine transcarbamylase. This transfer is mediated by the mitochondrial ornithine transporter (SLC25A15; AF112968; ORNT1). Mutations in the mitochondrial ornithine transporter result in hyperammonemia, hyperornithinemia, homocitrullinuria (HHH) syndrome, a disorder of the urea cycle (PMID: 16256388) The pathophysiology of the disease may involve diminished ornithine transport into mitochondria, resulting in ornithine accumulation in the cytoplasm and reduced ability to clear carbamoyl phosphate and ammonia loads (OMIM 838970).

HMDB0000452	L-alpha-aminobutyric acid, also known as (S)-2-aminobutanoic acid, homoalanine, 2-AABA, ethylglycine or L-butyrine, is a member of the class of compounds known as L-alpha-amino acids. L-alpha-amino acids are alpha amino acids which have the L-configuration of the alpha-carbon atom. L-alpha-aminobutyric acid is soluble (in water) and a moderately acidic compound (based on its pKa). L-alpha-aminobutyric acid is a non-proteogenic amino acid that can be found in human kidney and liver tissues, and in most biofluids or excreta, some of which include feces, breast milk, urine, and blood. Within the cell, L-alpha-aminobutyric acid is primarily located in the cytoplasm. Alpha-aminobutyric acid is biosynthesized by transaminating oxobutyrate, a metabolite in isoleucine biosynthesis. As a non-proteogenic amino acid alpha-aminobutyric acid can be used by nonribosomal peptide synthases. One example of a nonribosomal peptide containing alpha-aminobutyric acid is ophthalmic acid, which was first isolated from calf lens. Alpha-aminobutyric acid is a non-essential amino acid that is primarily derived from the catabolism of methionine, threonine and serine. High protein diets can result in significantly higher alpha-aminobutyrate levels in plasma (PMID: 26227325). Alpha-aminobutyric acid is elevated in the plasma of children with Reye's syndrome, tyrosinemia, homocystinuria, nonketotic hyperglycinemia, and ornithine transcarbamylase deficiency (PMID: 420125). Alpha-aminobutyric acid is one of the three isomers of aminobutyric acid. The two other are the neurotransmitter gamma-aminobutyric acid (GABA) and beta-aminobutyric acid (BABA) which is known for inducing plant disease resistance.

HMDB0001553	2-oxo-4-methylthiobutanoate, also known as 2-keto-4-methylthiobutyric acid, 2-keto-4-methylthiobutyrate or 4-(methylsulfanyl)-2-oxobutanoic acid, is a member of the class of compounds known as thia- fatty acids. Thia-fatty acids are fatty acid derivatives obtained by insertion of a sulfur atom at specific positions in the chain. Thus, 2-oxo-4-methylthiobutanoate is a fatty acid lipid molecule. 2-oxo-4-methylthiobutanoate is slightly soluble (in water) and a weakly acidic compound (based on its pKa). 2-oxo-4-methylthiobutanoate can be synthesized from L-methionine and butyric acid. 2-oxo-4-methylthiobutanoate can also be synthesized into S-adenosyl-4-methylthio-2-oxobutanoic acid. 2-oxo-4-methylthiobutanoate can be found in a number of food items such as cloves, highbush blueberries, common beets, and cashew nuts. 2-oxo-4-methylthiobutanoate can be found in urine. Within the cell, 2-oxo-4-methylthiobutanoate is primarily located in the cytoplasm and in the membrane. 2-oxo-4-methylthiobutanoate has been found in all living species, from bacteria to humans. In humans, 2-oxo-4-methylthiobutanoate is found to be involved in several metabolic disorders, some of those are S-adenosylhomocysteine (SAH) hydrolase deficiency, methylenetetrahydrofolate reductase deficiency (MTHFRD), methionine adenosyltransferase deficiency, and glycine N-methyltransferase deficiency. 4-Methylthio-2-oxobutanoic acid is the direct precursor of methional, which is a potent inducer of apoptosis in a BAF3 murine lymphoid cell line which is interleukin-3 (IL3)-dependent (PMID: 7848263).

HMDB0000734	Indoleacrylic acid, also known as indoleacrylate, indolylacrylic acid, IA, IAcrA or 3-(2-indolyl)acrylic acid, is a member of the class of compounds known as indoles. Indoles are compounds containing an indole moiety, which consists of pyrrole ring fused to benzene to form 2,3-benzopyrrole. Indoleacrylic acid is practically insoluble (in water) and a weak acidic compound (based on its pKa). Within the cell, indoleacrylic acid is primarily located in the membrane (predicted from LogP). Indoleacrylic acid is best known as a plant growth hormone (a natural auxin), whereas its biological role in animals is still unknown. A two-stage production of this compound is likely: Intestinal microorganisms catabolize tryptophan to indole derivatives which are then absorbed and converted to indoleacrylic acid and its glycine conjugate, indolylacryloylglycine (IAcrGly). Indolylacryloylglycine excretion in urine especially pronounced in some myopathies, namely in boys with Duchenne muscular dystrophy (PMID: 10707769). It has been recently found that indoleacrylic acid promotes intestinal epithelial barrier function and mitigates inflammatory responses. Stimulating Indoleacrylic acid production could promote anti-inflammatory responses and have therapeutic benefits (PMID: 28704649).

HMDB0040643	Juvocimene 1 is a member of the class of compounds known as aromatic monoterpenoids. Aromatic monoterpenoids are monoterpenoids containing at least one aromatic ring. Juvocimene 1 is practically insoluble (in water) and an extremely weak basic compound (based on its pKa). Juvocimene 1 can be found in herbs and spices and sweet basils (Ocimum basilicum) and is a potential biomarker for the consumption of these food products.

HMDB0040770	3-beta-3-lupanol is a member of the class of compounds known as triterpenoids. Triterpenoids are terpene molecules containing six isoprene units. 3-beta-3-lupanol is practically insoluble (in water) and an extremely weak acidic compound (based on its pKa). 3-beta-3-lupanol can be found in cereals and cereal products and is a potential biomarker for the consumption of these food products.

HMDB0059831	Propyl octanoate, also known as octanoic acid propyl ester or propyl caprylate, is a member of the class of compounds known as fatty acid esters. Fatty acid esters are carboxylic ester derivatives of a fatty acid. Propyl octanoate is practically insoluble (in water) and an extremely weak basic (essentially neutral) compound (based on its pKa). Fatty acid esters are carboxylic ester derivatives of a fatty acid. Propyl octanoate is practically insoluble (in water) and an extremely weak basic (essentially neutral) compound (based on its pKa). Propyl octanoate is a volatile propyl ester found in wine and produced during fermentation by yeast. Propyl esters are formed by the reaction of propanol with a fatty acid. Propyl esters are far less common than ethyl esters that are produced from ethanol. Propyl octanoate is found in coconut oil or produced from coconut oil and has a strong, pleasant aroma of coconut. It is also found in other foods or fruits such as apricots and ceriman fruit (Monstera deliciosa). Propyl octanoate is a potential biomarker for the consumption of these food products. The synthetic form of this compound is used as a flavoring agent and a scent agent in foods, perfumes, cosmetics and shampoos.